<?xml version="1.0" encoding="utf-8"?>
<!-- Generator: Adobe Illustrator 15.0.0, SVG Export Plug-In . SVG Version: 6.00 Build 0)  -->
<!DOCTYPE svg PUBLIC "-//W3C//DTD SVG 1.1//EN" "http://www.w3.org/Graphics/SVG/1.1/DTD/svg11.dtd">
<svg version="1.1" id="Layer_1" xmlns="http://www.w3.org/2000/svg" xmlns:xlink="http://www.w3.org/1999/xlink" x="0px" y="0px"
	 width="500px" height="500px" viewBox="0 0 500 500" enable-background="new 0 0 500 500" xml:space="preserve">
<g>
	<path fill="#010101" d="M306.893,277.014c-9.918,0-19.56,1.635-28.786,4.858c-18.881-45.523-64.169-76.365-114.181-76.365
		c-62.324,0-114.85,46.906-122.549,108.024C16.361,325.643,0,351.268,0,379.4c0,40.37,32.847,73.211,73.217,73.211h233.676
		c48.409,0,87.792-39.384,87.792-87.793C394.685,316.41,355.302,277.014,306.893,277.014z M306.893,430.085H73.217
		c-27.95,0-50.69-22.74-50.69-50.685c0-21.156,13.375-40.264,33.28-47.554l6.864-2.515l0.502-7.291
		c3.621-52.714,47.875-94.008,100.752-94.008c44.361,0,84.172,29.673,96.808,72.148l3.897,13.092l12.105-6.316
		c9.44-4.922,19.584-7.417,30.156-7.417c35.989,0,65.266,29.289,65.266,65.278S342.882,430.085,306.893,430.085z"/>
	<path fill="#010101" d="M288.15,181.459c42.877,0,77.773,34.889,77.773,77.78c0,7.988-1.22,15.694-3.457,22.954
		c7.944,2.117,14.645,7.178,18.855,14.021c4.551-11.451,7.128-23.902,7.128-36.976c0-55.398-44.915-100.306-100.3-100.306
		c-31.401,0-59.399,14.437-77.79,37.02c8.208,0.905,15.417,4.877,20.534,10.823C245.118,191.258,265.485,181.459,288.15,181.459z"/>
	<path fill="#010101" d="M288.15,118.079c6.121,0,11.125-5.066,11.125-11.263V58.652c0-6.191-5.004-11.263-11.125-11.263
		c-6.122,0-11.125,5.072-11.125,11.263v48.164C277.025,113.013,282.028,118.079,288.15,118.079z"/>
	<path fill="#010101" d="M437.952,109.443c-4.337-4.331-11.451-4.287-15.839,0.094l-34.053,34.053
		c-4.375,4.381-4.425,11.502-0.088,15.833c4.324,4.324,11.438,4.28,15.826-0.101l34.053-34.053
		C442.227,120.889,442.276,113.768,437.952,109.443z"/>
	<path fill="#010101" d="M488.737,248.114l-48.157,0.006c-6.197,0-11.264,5.009-11.264,11.125c0,6.116,5.066,11.119,11.264,11.119
		h48.157c6.197,0,11.263-5.003,11.263-11.125C500,253.124,494.935,248.114,488.737,248.114z"/>
	<path fill="#010101" d="M172.486,159.323c4.381,4.381,11.508,4.425,15.839,0.101c4.324-4.331,4.287-11.452-0.094-15.833
		l-34.06-34.053c-4.381-4.381-11.502-4.418-15.826-0.094c-4.331,4.33-4.287,11.452,0.094,15.833L172.486,159.323z"/>
</g>
</svg>
